scoreboard objectives add wasd_data_packs dummy
scoreboard players set wasd_villagers wasd_data_packs 1





function wasd.villager:error
execute unless score version wasd.lib_setting matches 24.. run schedule function wasd.villager:outdated_lib 1t
function wasd.lib:on_load/text