#determine first name
function wasd.lib:rng/1-100
execute if score @s wasd.rng matches 1 run summon minecraft:area_effect_cloud ~ ~ ~ {Tags:["wasd.villager_name"],CustomName:'{"text":"Micheal"}'}
execute if score @s wasd.rng matches 2 run summon minecraft:area_effect_cloud ~ ~ ~ {Tags:["wasd.villager_name"],CustomName:'{"text":"David"}'}
execute if score @s wasd.rng matches 3 run summon minecraft:area_effect_cloud ~ ~ ~ {Tags:["wasd.villager_name"],CustomName:'{"text":"Richard"}'}
execute if score @s wasd.rng matches 4 run summon minecraft:area_effect_cloud ~ ~ ~ {Tags:["wasd.villager_name"],CustomName:'{"text":"Joseph"}'}
execute if score @s wasd.rng matches 5 run summon minecraft:area_effect_cloud ~ ~ ~ {Tags:["wasd.villager_name"],CustomName:'{"text":"Charles"}'}
execute if score @s wasd.rng matches 6 run summon minecraft:area_effect_cloud ~ ~ ~ {Tags:["wasd.villager_name"],CustomName:'{"text":"Daniel"}'}
execute if score @s wasd.rng matches 7 run summon minecraft:area_effect_cloud ~ ~ ~ {Tags:["wasd.villager_name"],CustomName:'{"text":"Anthony"}'}
execute if score @s wasd.rng matches 8 run summon minecraft:area_effect_cloud ~ ~ ~ {Tags:["wasd.villager_name"],CustomName:'{"text":"Mark"}'}
execute if score @s wasd.rng matches 9 run summon minecraft:area_effect_cloud ~ ~ ~ {Tags:["wasd.villager_name"],CustomName:'{"text":"Kevin"}'}
execute if score @s wasd.rng matches 10 run summon minecraft:area_effect_cloud ~ ~ ~ {Tags:["wasd.villager_name"],CustomName:'{"text":"Norman"}'}
execute if score @s wasd.rng matches 11 run summon minecraft:area_effect_cloud ~ ~ ~ {Tags:["wasd.villager_name"],CustomName:'{"text":"Gaston"}'}
execute if score @s wasd.rng matches 12 run summon minecraft:area_effect_cloud ~ ~ ~ {Tags:["wasd.villager_name"],CustomName:'{"text":"Dorian"}'}
execute if score @s wasd.rng matches 13 run summon minecraft:area_effect_cloud ~ ~ ~ {Tags:["wasd.villager_name"],CustomName:'{"text":"Ted"}'}
execute if score @s wasd.rng matches 14 run summon minecraft:area_effect_cloud ~ ~ ~ {Tags:["wasd.villager_name"],CustomName:'{"text":"Fredrick"}'}
execute if score @s wasd.rng matches 15 run summon minecraft:area_effect_cloud ~ ~ ~ {Tags:["wasd.villager_name"],CustomName:'{"text":"Felix"}'}
execute if score @s wasd.rng matches 16 run summon minecraft:area_effect_cloud ~ ~ ~ {Tags:["wasd.villager_name"],CustomName:'{"text":"Pewdiepie"}'}
execute if score @s wasd.rng matches 17 run summon minecraft:area_effect_cloud ~ ~ ~ {Tags:["wasd.villager_name"],CustomName:'{"text":"Sheev"}'}
execute if score @s wasd.rng matches 18 run summon minecraft:area_effect_cloud ~ ~ ~ {Tags:["wasd.villager_name"],CustomName:'{"text":"Clive"}'}
execute if score @s wasd.rng matches 19 run summon minecraft:area_effect_cloud ~ ~ ~ {Tags:["wasd.villager_name"],CustomName:'{"text":"Darren"}'}
execute if score @s wasd.rng matches 20 run summon minecraft:area_effect_cloud ~ ~ ~ {Tags:["wasd.villager_name"],CustomName:'{"text":"Donald"}'}
execute if score @s wasd.rng matches 21 run summon minecraft:area_effect_cloud ~ ~ ~ {Tags:["wasd.villager_name"],CustomName:'{"text":"Drake"}'}
execute if score @s wasd.rng matches 22 run summon minecraft:area_effect_cloud ~ ~ ~ {Tags:["wasd.villager_name"],CustomName:'{"text":"Edward"}'}
execute if score @s wasd.rng matches 23 run summon minecraft:area_effect_cloud ~ ~ ~ {Tags:["wasd.villager_name"],CustomName:'{"text":"Geoffrey"}'}
execute if score @s wasd.rng matches 24 run summon minecraft:area_effect_cloud ~ ~ ~ {Tags:["wasd.villager_name"],CustomName:'{"text":"Gregory"}'}
execute if score @s wasd.rng matches 25 run summon minecraft:area_effect_cloud ~ ~ ~ {Tags:["wasd.villager_name"],CustomName:'{"text":"Harold"}'}
execute if score @s wasd.rng matches 26 run summon minecraft:area_effect_cloud ~ ~ ~ {Tags:["wasd.villager_name"],CustomName:'{"text":"Henry"}'}
execute if score @s wasd.rng matches 27 run summon minecraft:area_effect_cloud ~ ~ ~ {Tags:["wasd.villager_name"],CustomName:'{"text":"Hunter"}'}
execute if score @s wasd.rng matches 28 run summon minecraft:area_effect_cloud ~ ~ ~ {Tags:["wasd.villager_name"],CustomName:'{"text":"Ichabod"}'}
execute if score @s wasd.rng matches 29 run summon minecraft:area_effect_cloud ~ ~ ~ {Tags:["wasd.villager_name"],CustomName:'{"text":"Jerome"}'}
execute if score @s wasd.rng matches 30 run summon minecraft:area_effect_cloud ~ ~ ~ {Tags:["wasd.villager_name"],CustomName:'{"text":"Kareem"}'}
execute if score @s wasd.rng matches 31 run summon minecraft:area_effect_cloud ~ ~ ~ {Tags:["wasd.villager_name"],CustomName:'{"text":"Leonard"}'}
execute if score @s wasd.rng matches 32 run summon minecraft:area_effect_cloud ~ ~ ~ {Tags:["wasd.villager_name"],CustomName:'{"text":"Lionel"}'}
execute if score @s wasd.rng matches 33 run summon minecraft:area_effect_cloud ~ ~ ~ {Tags:["wasd.villager_name"],CustomName:'{"text":"Mashall"}'}
execute if score @s wasd.rng matches 34 run summon minecraft:area_effect_cloud ~ ~ ~ {Tags:["wasd.villager_name"],CustomName:'{"text":"Michael"}'}
execute if score @s wasd.rng matches 35 run summon minecraft:area_effect_cloud ~ ~ ~ {Tags:["wasd.villager_name"],CustomName:'{"text":"Norbert"}'}
execute if score @s wasd.rng matches 36 run summon minecraft:area_effect_cloud ~ ~ ~ {Tags:["wasd.villager_name"],CustomName:'{"text":"Oliver"}'}
execute if score @s wasd.rng matches 37 run summon minecraft:area_effect_cloud ~ ~ ~ {Tags:["wasd.villager_name"],CustomName:'{"text":"Patrick"}'}
execute if score @s wasd.rng matches 38 run summon minecraft:area_effect_cloud ~ ~ ~ {Tags:["wasd.villager_name"],CustomName:'{"text":"Phillip"}'}
execute if score @s wasd.rng matches 39 run summon minecraft:area_effect_cloud ~ ~ ~ {Tags:["wasd.villager_name"],CustomName:'{"text":"Reuben"}'}
execute if score @s wasd.rng matches 40 run summon minecraft:area_effect_cloud ~ ~ ~ {Tags:["wasd.villager_name"],CustomName:'{"text":"Robert"}'}
execute if score @s wasd.rng matches 41 run summon minecraft:area_effect_cloud ~ ~ ~ {Tags:["wasd.villager_name"],CustomName:'{"text":"Rusty"}'}
execute if score @s wasd.rng matches 42 run summon minecraft:area_effect_cloud ~ ~ ~ {Tags:["wasd.villager_name"],CustomName:'{"text":"Dorcas"}'}
execute if score @s wasd.rng matches 43 run summon minecraft:area_effect_cloud ~ ~ ~ {Tags:["wasd.villager_name"],CustomName:'{"text":"Sheldon"}'}
execute if score @s wasd.rng matches 44 run summon minecraft:area_effect_cloud ~ ~ ~ {Tags:["wasd.villager_name"],CustomName:'{"text":"Samuel"}'}
execute if score @s wasd.rng matches 45 run summon minecraft:area_effect_cloud ~ ~ ~ {Tags:["wasd.villager_name"],CustomName:'{"text":"Theodore"}'}
execute if score @s wasd.rng matches 46 run summon minecraft:area_effect_cloud ~ ~ ~ {Tags:["wasd.villager_name"],CustomName:'{"text":"Timmy"}'}
execute if score @s wasd.rng matches 47 run summon minecraft:area_effect_cloud ~ ~ ~ {Tags:["wasd.villager_name"],CustomName:'{"text":"Trent"}'}
execute if score @s wasd.rng matches 48 run summon minecraft:area_effect_cloud ~ ~ ~ {Tags:["wasd.villager_name"],CustomName:'{"text":"Trevor"}'}
execute if score @s wasd.rng matches 49 run summon minecraft:area_effect_cloud ~ ~ ~ {Tags:["wasd.villager_name"],CustomName:'{"text":"Victor"}'}
execute if score @s wasd.rng matches 50 run summon minecraft:area_effect_cloud ~ ~ ~ {Tags:["wasd.villager_name"],CustomName:'{"text":"Wallace"}'}
execute if score @s wasd.rng matches 51 run summon minecraft:area_effect_cloud ~ ~ ~ {Tags:["wasd.villager_name"],CustomName:'{"text":"Ward"}'}
execute if score @s wasd.rng matches 52 run summon minecraft:area_effect_cloud ~ ~ ~ {Tags:["wasd.villager_name"],CustomName:'{"text":"William"}'}
execute if score @s wasd.rng matches 53 run summon minecraft:area_effect_cloud ~ ~ ~ {Tags:["wasd.villager_name"],CustomName:'{"text":"Xavier"}'}
execute if score @s wasd.rng matches 54 run summon minecraft:area_effect_cloud ~ ~ ~ {Tags:["wasd.villager_name"],CustomName:'{"text":"Xander"}'}
execute if score @s wasd.rng matches 55 run summon minecraft:area_effect_cloud ~ ~ ~ {Tags:["wasd.villager_name"],CustomName:'{"text":"Jaffar"}'}
execute if score @s wasd.rng matches 56 run summon minecraft:area_effect_cloud ~ ~ ~ {Tags:["wasd.villager_name"],CustomName:'{"text":"Ulysses"}'}
execute if score @s wasd.rng matches 57 run summon minecraft:area_effect_cloud ~ ~ ~ {Tags:["wasd.villager_name"],CustomName:'{"text":"Stewart"}'}
execute if score @s wasd.rng matches 58 run summon minecraft:area_effect_cloud ~ ~ ~ {Tags:["wasd.villager_name"],CustomName:'{"text":"Steven"}'}
execute if score @s wasd.rng matches 59 run summon minecraft:area_effect_cloud ~ ~ ~ {Tags:["wasd.villager_name"],CustomName:'{"text":"Russell"}'}
execute if score @s wasd.rng matches 60 run summon minecraft:area_effect_cloud ~ ~ ~ {Tags:["wasd.villager_name"],CustomName:'{"text":"Ronald"}'}
execute if score @s wasd.rng matches 61 run summon minecraft:area_effect_cloud ~ ~ ~ {Tags:["wasd.villager_name"],CustomName:'{"text":"Roger"}'}
execute if score @s wasd.rng matches 62 run summon minecraft:area_effect_cloud ~ ~ ~ {Tags:["wasd.villager_name"],CustomName:'{"text":"Robin"}'}
execute if score @s wasd.rng matches 63 run summon minecraft:area_effect_cloud ~ ~ ~ {Tags:["wasd.villager_name"],CustomName:'{"text":"Raymond"}'}
execute if score @s wasd.rng matches 64 run summon minecraft:area_effect_cloud ~ ~ ~ {Tags:["wasd.villager_name"],CustomName:'{"text":"Quincy"}'}
execute if score @s wasd.rng matches 65 run summon minecraft:area_effect_cloud ~ ~ ~ {Tags:["wasd.villager_name"],CustomName:'{"text":"Oscar"}'}
execute if score @s wasd.rng matches 66 run summon minecraft:area_effect_cloud ~ ~ ~ {Tags:["wasd.villager_name"],CustomName:'{"text":"Samson"}'}
execute if score @s wasd.rng matches 67 run summon minecraft:area_effect_cloud ~ ~ ~ {Tags:["wasd.villager_name"],CustomName:'{"text":"Nicholas"}'}
execute if score @s wasd.rng matches 68 run summon minecraft:area_effect_cloud ~ ~ ~ {Tags:["wasd.villager_name"],CustomName:'{"text":"Cain"}'}
execute if score @s wasd.rng matches 69 run summon minecraft:area_effect_cloud ~ ~ ~ {Tags:["wasd.villager_name"],CustomName:'{"text":"Abel"}'}
execute if score @s wasd.rng matches 70 run summon minecraft:area_effect_cloud ~ ~ ~ {Tags:["wasd.villager_name"],CustomName:'{"text":"Martin"}'}
execute if score @s wasd.rng matches 71 run summon minecraft:area_effect_cloud ~ ~ ~ {Tags:["wasd.villager_name"],CustomName:'{"text":"Llewellyn"}'}
execute if score @s wasd.rng matches 72 run summon minecraft:area_effect_cloud ~ ~ ~ {Tags:["wasd.villager_name"],CustomName:'{"text":"Beowolf"}'}
execute if score @s wasd.rng matches 73 run summon minecraft:area_effect_cloud ~ ~ ~ {Tags:["wasd.villager_name"],CustomName:'{"text":"Abigail"}'}
execute if score @s wasd.rng matches 74 run summon minecraft:area_effect_cloud ~ ~ ~ {Tags:["wasd.villager_name"],CustomName:'{"text":"Angelica"}'}
execute if score @s wasd.rng matches 75 run summon minecraft:area_effect_cloud ~ ~ ~ {Tags:["wasd.villager_name"],CustomName:'{"text":"Bernadette"}'}
execute if score @s wasd.rng matches 76 run summon minecraft:area_effect_cloud ~ ~ ~ {Tags:["wasd.villager_name"],CustomName:'{"text":"Catherine"}'}
execute if score @s wasd.rng matches 77 run summon minecraft:area_effect_cloud ~ ~ ~ {Tags:["wasd.villager_name"],CustomName:'{"text":"Deirdre"}'}
execute if score @s wasd.rng matches 78 run summon minecraft:area_effect_cloud ~ ~ ~ {Tags:["wasd.villager_name"],CustomName:'{"text":"Ernestine"}'}
execute if score @s wasd.rng matches 79 run summon minecraft:area_effect_cloud ~ ~ ~ {Tags:["wasd.villager_name"],CustomName:'{"text":"Florence"}'}
execute if score @s wasd.rng matches 80 run summon minecraft:area_effect_cloud ~ ~ ~ {Tags:["wasd.villager_name"],CustomName:'{"text":"Gwen"}'}
execute if score @s wasd.rng matches 81 run summon minecraft:area_effect_cloud ~ ~ ~ {Tags:["wasd.villager_name"],CustomName:'{"text":"Henrietta"}'}
execute if score @s wasd.rng matches 82 run summon minecraft:area_effect_cloud ~ ~ ~ {Tags:["wasd.villager_name"],CustomName:'{"text":"Jacqueline"}'}
execute if score @s wasd.rng matches 83 run summon minecraft:area_effect_cloud ~ ~ ~ {Tags:["wasd.villager_name"],CustomName:'{"text":"Kimberly"}'}
execute if score @s wasd.rng matches 84 run summon minecraft:area_effect_cloud ~ ~ ~ {Tags:["wasd.villager_name"],CustomName:'{"text":"Lydia"}'}
execute if score @s wasd.rng matches 85 run summon minecraft:area_effect_cloud ~ ~ ~ {Tags:["wasd.villager_name"],CustomName:'{"text":"Margaret"}'}
execute if score @s wasd.rng matches 86 run summon minecraft:area_effect_cloud ~ ~ ~ {Tags:["wasd.villager_name"],CustomName:'{"text":"Meredith"}'}
execute if score @s wasd.rng matches 87 run summon minecraft:area_effect_cloud ~ ~ ~ {Tags:["wasd.villager_name"],CustomName:'{"text":"Olga"}'}
execute if score @s wasd.rng matches 88 run summon minecraft:area_effect_cloud ~ ~ ~ {Tags:["wasd.villager_name"],CustomName:'{"text":"Pamela"}'}
execute if score @s wasd.rng matches 89 run summon minecraft:area_effect_cloud ~ ~ ~ {Tags:["wasd.villager_name"],CustomName:'{"text":"Sabrina"}'}
execute if score @s wasd.rng matches 90 run summon minecraft:area_effect_cloud ~ ~ ~ {Tags:["wasd.villager_name"],CustomName:'{"text":"Suzanne"}'}
execute if score @s wasd.rng matches 91 run summon minecraft:area_effect_cloud ~ ~ ~ {Tags:["wasd.villager_name"],CustomName:'{"text":"Tabitha"}'}
execute if score @s wasd.rng matches 92 run summon minecraft:area_effect_cloud ~ ~ ~ {Tags:["wasd.villager_name"],CustomName:'{"text":"Ursula"}'}
execute if score @s wasd.rng matches 93 run summon minecraft:area_effect_cloud ~ ~ ~ {Tags:["wasd.villager_name"],CustomName:'{"text":"Thelma"}'}
execute if score @s wasd.rng matches 94 run summon minecraft:area_effect_cloud ~ ~ ~ {Tags:["wasd.villager_name"],CustomName:'{"text":"Brian"}'}
execute if score @s wasd.rng matches 95 run summon minecraft:area_effect_cloud ~ ~ ~ {Tags:["wasd.villager_name"],CustomName:'{"text":"Larry"}'}
execute if score @s wasd.rng matches 96 run summon minecraft:area_effect_cloud ~ ~ ~ {Tags:["wasd.villager_name"],CustomName:'{"text":"Jack"}'}
execute if score @s wasd.rng matches 97 run summon minecraft:area_effect_cloud ~ ~ ~ {Tags:["wasd.villager_name"],CustomName:'{"text":"Douglas"}'}
execute if score @s wasd.rng matches 98 run summon minecraft:area_effect_cloud ~ ~ ~ {Tags:["wasd.villager_name"],CustomName:'{"text":"Peter"}'}
execute if score @s wasd.rng matches 99 run summon minecraft:area_effect_cloud ~ ~ ~ {Tags:["wasd.villager_name"],CustomName:'{"text":"Zachary"}'}
execute if score @s wasd.rng matches 100 run summon minecraft:area_effect_cloud ~ ~ ~ {Tags:["wasd.villager_name"],CustomName:'{"text":"Kyle"}'}

#determine title
function wasd.lib:rng/1-100
execute if score @s wasd.rng matches 1 run summon minecraft:area_effect_cloud ~ ~ ~ {Tags:["wasd.villager_title"],CustomName:'{"text":"Smith"}'}
execute if score @s wasd.rng matches 2 run summon minecraft:area_effect_cloud ~ ~ ~ {Tags:["wasd.villager_title"],CustomName:'{"text":"Johnson"}'}
execute if score @s wasd.rng matches 3 run summon minecraft:area_effect_cloud ~ ~ ~ {Tags:["wasd.villager_title"],CustomName:'{"text":"Williams"}'}
execute if score @s wasd.rng matches 4 run summon minecraft:area_effect_cloud ~ ~ ~ {Tags:["wasd.villager_title"],CustomName:'{"text":"Jones"}'}
execute if score @s wasd.rng matches 5 run summon minecraft:area_effect_cloud ~ ~ ~ {Tags:["wasd.villager_title"],CustomName:'{"text":"Brown"}'}
execute if score @s wasd.rng matches 6 run summon minecraft:area_effect_cloud ~ ~ ~ {Tags:["wasd.villager_title"],CustomName:'{"text":"Davis"}'}
execute if score @s wasd.rng matches 7 run summon minecraft:area_effect_cloud ~ ~ ~ {Tags:["wasd.villager_title"],CustomName:'{"text":"Miller"}'}
execute if score @s wasd.rng matches 8 run summon minecraft:area_effect_cloud ~ ~ ~ {Tags:["wasd.villager_title"],CustomName:'{"text":"Wilson"}'}
execute if score @s wasd.rng matches 9 run summon minecraft:area_effect_cloud ~ ~ ~ {Tags:["wasd.villager_title"],CustomName:'{"text":"Moore"}'}
execute if score @s wasd.rng matches 10 run summon minecraft:area_effect_cloud ~ ~ ~ {Tags:["wasd.villager_title"],CustomName:'{"text":"Taylor"}'}
execute if score @s wasd.rng matches 11 run summon minecraft:area_effect_cloud ~ ~ ~ {Tags:["wasd.villager_title"],CustomName:'{"text":"Anderson"}'}
execute if score @s wasd.rng matches 12 run summon minecraft:area_effect_cloud ~ ~ ~ {Tags:["wasd.villager_title"],CustomName:'{"text":"Thomas"}'}
execute if score @s wasd.rng matches 13 run summon minecraft:area_effect_cloud ~ ~ ~ {Tags:["wasd.villager_title"],CustomName:'{"text":"Jackson"}'}
execute if score @s wasd.rng matches 14 run summon minecraft:area_effect_cloud ~ ~ ~ {Tags:["wasd.villager_title"],CustomName:'{"text":"White"}'}
execute if score @s wasd.rng matches 15 run summon minecraft:area_effect_cloud ~ ~ ~ {Tags:["wasd.villager_title"],CustomName:'{"text":"Harris"}'}
execute if score @s wasd.rng matches 16 run summon minecraft:area_effect_cloud ~ ~ ~ {Tags:["wasd.villager_title"],CustomName:'{"text":"Martin"}'}
execute if score @s wasd.rng matches 17 run summon minecraft:area_effect_cloud ~ ~ ~ {Tags:["wasd.villager_title"],CustomName:'{"text":"Thompson"}'}
execute if score @s wasd.rng matches 18 run summon minecraft:area_effect_cloud ~ ~ ~ {Tags:["wasd.villager_title"],CustomName:'{"text":"Garcia"}'}
execute if score @s wasd.rng matches 19 run summon minecraft:area_effect_cloud ~ ~ ~ {Tags:["wasd.villager_title"],CustomName:'{"text":"Martinez"}'}
execute if score @s wasd.rng matches 20 run summon minecraft:area_effect_cloud ~ ~ ~ {Tags:["wasd.villager_title"],CustomName:'{"text":"Robinson"}'}
execute if score @s wasd.rng matches 21 run summon minecraft:area_effect_cloud ~ ~ ~ {Tags:["wasd.villager_title"],CustomName:'{"text":"Clark"}'}
execute if score @s wasd.rng matches 22 run summon minecraft:area_effect_cloud ~ ~ ~ {Tags:["wasd.villager_title"],CustomName:'{"text":"Rodriguez"}'}
execute if score @s wasd.rng matches 23 run summon minecraft:area_effect_cloud ~ ~ ~ {Tags:["wasd.villager_title"],CustomName:'{"text":"Lewis"}'}
execute if score @s wasd.rng matches 24 run summon minecraft:area_effect_cloud ~ ~ ~ {Tags:["wasd.villager_title"],CustomName:'{"text":"Lee"}'}
execute if score @s wasd.rng matches 25 run summon minecraft:area_effect_cloud ~ ~ ~ {Tags:["wasd.villager_title"],CustomName:'{"text":"Walker"}'}
execute if score @s wasd.rng matches 26 run summon minecraft:area_effect_cloud ~ ~ ~ {Tags:["wasd.villager_title"],CustomName:'{"text":"Hall"}'}
execute if score @s wasd.rng matches 27 run summon minecraft:area_effect_cloud ~ ~ ~ {Tags:["wasd.villager_title"],CustomName:'{"text":"Allen"}'}
execute if score @s wasd.rng matches 28 run summon minecraft:area_effect_cloud ~ ~ ~ {Tags:["wasd.villager_title"],CustomName:'{"text":"Young"}'}
execute if score @s wasd.rng matches 29 run summon minecraft:area_effect_cloud ~ ~ ~ {Tags:["wasd.villager_title"],CustomName:'{"text":"Hernandez"}'}
execute if score @s wasd.rng matches 30 run summon minecraft:area_effect_cloud ~ ~ ~ {Tags:["wasd.villager_title"],CustomName:'{"text":"King"}'}
execute if score @s wasd.rng matches 31 run summon minecraft:area_effect_cloud ~ ~ ~ {Tags:["wasd.villager_title"],CustomName:'{"text":"Wright"}'}
execute if score @s wasd.rng matches 32 run summon minecraft:area_effect_cloud ~ ~ ~ {Tags:["wasd.villager_title"],CustomName:'{"text":"Lopez"}'}
execute if score @s wasd.rng matches 33 run summon minecraft:area_effect_cloud ~ ~ ~ {Tags:["wasd.villager_title"],CustomName:'{"text":"Hill"}'}
execute if score @s wasd.rng matches 34 run summon minecraft:area_effect_cloud ~ ~ ~ {Tags:["wasd.villager_title"],CustomName:'{"text":"Scott"}'}
execute if score @s wasd.rng matches 35 run summon minecraft:area_effect_cloud ~ ~ ~ {Tags:["wasd.villager_title"],CustomName:'{"text":"Green"}'}
execute if score @s wasd.rng matches 36 run summon minecraft:area_effect_cloud ~ ~ ~ {Tags:["wasd.villager_title"],CustomName:'{"text":"Adams"}'}
execute if score @s wasd.rng matches 37 run summon minecraft:area_effect_cloud ~ ~ ~ {Tags:["wasd.villager_title"],CustomName:'{"text":"Baker"}'}
execute if score @s wasd.rng matches 38 run summon minecraft:area_effect_cloud ~ ~ ~ {Tags:["wasd.villager_title"],CustomName:'{"text":"Gonzalez"}'}
execute if score @s wasd.rng matches 39 run summon minecraft:area_effect_cloud ~ ~ ~ {Tags:["wasd.villager_title"],CustomName:'{"text":"Nelson"}'}
execute if score @s wasd.rng matches 40 run summon minecraft:area_effect_cloud ~ ~ ~ {Tags:["wasd.villager_title"],CustomName:'{"text":"Carter"}'}
execute if score @s wasd.rng matches 41 run summon minecraft:area_effect_cloud ~ ~ ~ {Tags:["wasd.villager_title"],CustomName:'{"text":"Mitchell"}'}
execute if score @s wasd.rng matches 42 run summon minecraft:area_effect_cloud ~ ~ ~ {Tags:["wasd.villager_title"],CustomName:'{"text":"Perez"}'}
execute if score @s wasd.rng matches 43 run summon minecraft:area_effect_cloud ~ ~ ~ {Tags:["wasd.villager_title"],CustomName:'{"text":"Roberts"}'}
execute if score @s wasd.rng matches 44 run summon minecraft:area_effect_cloud ~ ~ ~ {Tags:["wasd.villager_title"],CustomName:'{"text":"Turner"}'}
execute if score @s wasd.rng matches 45 run summon minecraft:area_effect_cloud ~ ~ ~ {Tags:["wasd.villager_title"],CustomName:'{"text":"Phillips"}'}
execute if score @s wasd.rng matches 46 run summon minecraft:area_effect_cloud ~ ~ ~ {Tags:["wasd.villager_title"],CustomName:'{"text":"Campbell"}'}
execute if score @s wasd.rng matches 47 run summon minecraft:area_effect_cloud ~ ~ ~ {Tags:["wasd.villager_title"],CustomName:'{"text":"Parker"}'}
execute if score @s wasd.rng matches 48 run summon minecraft:area_effect_cloud ~ ~ ~ {Tags:["wasd.villager_title"],CustomName:'{"text":"Evans"}'}
execute if score @s wasd.rng matches 49 run summon minecraft:area_effect_cloud ~ ~ ~ {Tags:["wasd.villager_title"],CustomName:'{"text":"Edwards"}'}
execute if score @s wasd.rng matches 50 run summon minecraft:area_effect_cloud ~ ~ ~ {Tags:["wasd.villager_title"],CustomName:'{"text":"Collins"}'}
execute if score @s wasd.rng matches 51 run summon minecraft:area_effect_cloud ~ ~ ~ {Tags:["wasd.villager_title"],CustomName:'{"text":"Stewart"}'}
execute if score @s wasd.rng matches 52 run summon minecraft:area_effect_cloud ~ ~ ~ {Tags:["wasd.villager_title"],CustomName:'{"text":"Sanchez"}'}
execute if score @s wasd.rng matches 53 run summon minecraft:area_effect_cloud ~ ~ ~ {Tags:["wasd.villager_title"],CustomName:'{"text":"Morris"}'}
execute if score @s wasd.rng matches 54 run summon minecraft:area_effect_cloud ~ ~ ~ {Tags:["wasd.villager_title"],CustomName:'{"text":"Rogers"}'}
execute if score @s wasd.rng matches 55 run summon minecraft:area_effect_cloud ~ ~ ~ {Tags:["wasd.villager_title"],CustomName:'{"text":"Reed"}'}
execute if score @s wasd.rng matches 56 run summon minecraft:area_effect_cloud ~ ~ ~ {Tags:["wasd.villager_title"],CustomName:'{"text":"Cook"}'}
execute if score @s wasd.rng matches 57 run summon minecraft:area_effect_cloud ~ ~ ~ {Tags:["wasd.villager_title"],CustomName:'{"text":"Morgan"}'}
execute if score @s wasd.rng matches 58 run summon minecraft:area_effect_cloud ~ ~ ~ {Tags:["wasd.villager_title"],CustomName:'{"text":"Bell"}'}
execute if score @s wasd.rng matches 59 run summon minecraft:area_effect_cloud ~ ~ ~ {Tags:["wasd.villager_title"],CustomName:'{"text":"Murphy"}'}
execute if score @s wasd.rng matches 60 run summon minecraft:area_effect_cloud ~ ~ ~ {Tags:["wasd.villager_title"],CustomName:'{"text":"Bailey"}'}
execute if score @s wasd.rng matches 61 run summon minecraft:area_effect_cloud ~ ~ ~ {Tags:["wasd.villager_title"],CustomName:'{"text":"Rivera"}'}
execute if score @s wasd.rng matches 62 run summon minecraft:area_effect_cloud ~ ~ ~ {Tags:["wasd.villager_title"],CustomName:'{"text":"Cooper"}'}
execute if score @s wasd.rng matches 63 run summon minecraft:area_effect_cloud ~ ~ ~ {Tags:["wasd.villager_title"],CustomName:'{"text":"Richardson"}'}
execute if score @s wasd.rng matches 64 run summon minecraft:area_effect_cloud ~ ~ ~ {Tags:["wasd.villager_title"],CustomName:'{"text":"Cox"}'}
execute if score @s wasd.rng matches 65 run summon minecraft:area_effect_cloud ~ ~ ~ {Tags:["wasd.villager_title"],CustomName:'{"text":"Howard"}'}
execute if score @s wasd.rng matches 66 run summon minecraft:area_effect_cloud ~ ~ ~ {Tags:["wasd.villager_title"],CustomName:'{"text":"Ward"}'}
execute if score @s wasd.rng matches 67 run summon minecraft:area_effect_cloud ~ ~ ~ {Tags:["wasd.villager_title"],CustomName:'{"text":"Torres"}'}
execute if score @s wasd.rng matches 68 run summon minecraft:area_effect_cloud ~ ~ ~ {Tags:["wasd.villager_title"],CustomName:'{"text":"Peterson"}'}
execute if score @s wasd.rng matches 69 run summon minecraft:area_effect_cloud ~ ~ ~ {Tags:["wasd.villager_title"],CustomName:'{"text":"Gray"}'}
execute if score @s wasd.rng matches 70 run summon minecraft:area_effect_cloud ~ ~ ~ {Tags:["wasd.villager_title"],CustomName:'{"text":"Ramirez"}'}
execute if score @s wasd.rng matches 71 run summon minecraft:area_effect_cloud ~ ~ ~ {Tags:["wasd.villager_title"],CustomName:'{"text":"James"}'}
execute if score @s wasd.rng matches 72 run summon minecraft:area_effect_cloud ~ ~ ~ {Tags:["wasd.villager_title"],CustomName:'{"text":"Watson"}'}
execute if score @s wasd.rng matches 73 run summon minecraft:area_effect_cloud ~ ~ ~ {Tags:["wasd.villager_title"],CustomName:'{"text":"Brooks"}'}
execute if score @s wasd.rng matches 74 run summon minecraft:area_effect_cloud ~ ~ ~ {Tags:["wasd.villager_title"],CustomName:'{"text":"Kelly"}'}
execute if score @s wasd.rng matches 75 run summon minecraft:area_effect_cloud ~ ~ ~ {Tags:["wasd.villager_title"],CustomName:'{"text":"Sanders"}'}
execute if score @s wasd.rng matches 76 run summon minecraft:area_effect_cloud ~ ~ ~ {Tags:["wasd.villager_title"],CustomName:'{"text":"Price"}'}
execute if score @s wasd.rng matches 77 run summon minecraft:area_effect_cloud ~ ~ ~ {Tags:["wasd.villager_title"],CustomName:'{"text":"Bennett"}'}
execute if score @s wasd.rng matches 78 run summon minecraft:area_effect_cloud ~ ~ ~ {Tags:["wasd.villager_title"],CustomName:'{"text":"Wood"}'}
execute if score @s wasd.rng matches 79 run summon minecraft:area_effect_cloud ~ ~ ~ {Tags:["wasd.villager_title"],CustomName:'{"text":"Barnes"}'}
execute if score @s wasd.rng matches 80 run summon minecraft:area_effect_cloud ~ ~ ~ {Tags:["wasd.villager_title"],CustomName:'{"text":"Ross"}'}
execute if score @s wasd.rng matches 81 run summon minecraft:area_effect_cloud ~ ~ ~ {Tags:["wasd.villager_title"],CustomName:'{"text":"Henderson"}'}
execute if score @s wasd.rng matches 82 run summon minecraft:area_effect_cloud ~ ~ ~ {Tags:["wasd.villager_title"],CustomName:'{"text":"Coleman"}'}
execute if score @s wasd.rng matches 83 run summon minecraft:area_effect_cloud ~ ~ ~ {Tags:["wasd.villager_title"],CustomName:'{"text":"Jenkins"}'}
execute if score @s wasd.rng matches 84 run summon minecraft:area_effect_cloud ~ ~ ~ {Tags:["wasd.villager_title"],CustomName:'{"text":"Perry"}'}
execute if score @s wasd.rng matches 85 run summon minecraft:area_effect_cloud ~ ~ ~ {Tags:["wasd.villager_title"],CustomName:'{"text":"Powell"}'}
execute if score @s wasd.rng matches 86 run summon minecraft:area_effect_cloud ~ ~ ~ {Tags:["wasd.villager_title"],CustomName:'{"text":"Long"}'}
execute if score @s wasd.rng matches 87 run summon minecraft:area_effect_cloud ~ ~ ~ {Tags:["wasd.villager_title"],CustomName:'{"text":"Patterson"}'}
execute if score @s wasd.rng matches 88 run summon minecraft:area_effect_cloud ~ ~ ~ {Tags:["wasd.villager_title"],CustomName:'{"text":"Hughes"}'}
execute if score @s wasd.rng matches 89 run summon minecraft:area_effect_cloud ~ ~ ~ {Tags:["wasd.villager_title"],CustomName:'{"text":"Flores"}'}
execute if score @s wasd.rng matches 90 run summon minecraft:area_effect_cloud ~ ~ ~ {Tags:["wasd.villager_title"],CustomName:'{"text":"Washington"}'}
execute if score @s wasd.rng matches 91 run summon minecraft:area_effect_cloud ~ ~ ~ {Tags:["wasd.villager_title"],CustomName:'{"text":"Butler"}'}
execute if score @s wasd.rng matches 92 run summon minecraft:area_effect_cloud ~ ~ ~ {Tags:["wasd.villager_title"],CustomName:'{"text":"Simmons"}'}
execute if score @s wasd.rng matches 93 run summon minecraft:area_effect_cloud ~ ~ ~ {Tags:["wasd.villager_title"],CustomName:'{"text":"Foster"}'}
execute if score @s wasd.rng matches 94 run summon minecraft:area_effect_cloud ~ ~ ~ {Tags:["wasd.villager_title"],CustomName:'{"text":"Gonzales"}'}
execute if score @s wasd.rng matches 95 run summon minecraft:area_effect_cloud ~ ~ ~ {Tags:["wasd.villager_title"],CustomName:'{"text":"Bryant"}'}
execute if score @s wasd.rng matches 96 run summon minecraft:area_effect_cloud ~ ~ ~ {Tags:["wasd.villager_title"],CustomName:'{"text":"Alexander"}'}
execute if score @s wasd.rng matches 97 run summon minecraft:area_effect_cloud ~ ~ ~ {Tags:["wasd.villager_title"],CustomName:'{"text":"Russell"}'}
execute if score @s wasd.rng matches 98 run summon minecraft:area_effect_cloud ~ ~ ~ {Tags:["wasd.villager_title"],CustomName:'{"text":"Griffin"}'}
execute if score @s wasd.rng matches 99 run summon minecraft:area_effect_cloud ~ ~ ~ {Tags:["wasd.villager_title"],CustomName:'{"text":"Diaz"}'}
execute if score @s wasd.rng matches 100 run summon minecraft:area_effect_cloud ~ ~ ~ {Tags:["wasd.villager_title"],CustomName:'{"text":"Hayes"}'}

#place sign to transfer name
function wasd.villager:place_sign


data merge entity @s {CustomNameVisible:1b}

#set tag
tag @s add wasd_villager


