function wasd.lib:util/clear_text

tellraw @s {"text":"Configure Villager Names Settings","color":"gray","bold":true}
tellraw @s [""]
tellraw @s {"text":"Have an idea for a setting?","color":"gray"}
tellraw @a {"text":"Join our Discord and let us know!","color":"dark_aqua","clickEvent":{"action":"open_url","value":"https://discordapp.com/invite/yqk4VfA"}}
tellraw @s [""]
